{
    "femgen model": 

        {
            "__name__": "SocialList",

            "__description__": "",

            "__type__": "dtoesa:SA:SocialList",
        
            "__properties__": [

                { "name":"nb_vessel_crew",
                  "type": "double"
                },
                  {"name":"cost_of_consenting",
                  "type": "double"
                }                      
        ]
    }
}