{
    "__type__": "dtoesa:inputs:inputs_ESA_status",
    "name": "unit_test",
    "description": "",
    "farm_info_page": "False",
    "device_info_page": "False",
    "electrical_info_page": "False",
    "logistics_info_page": "False",
    "complexity_level": "3"
}
