<?xml version="1.0" standalone="no"?>
<!DOCTYPE svg PUBLIC "-//W3C//DTD SVG 20010904//EN"
 "http://www.w3.org/TR/2001/REC-SVG-20010904/DTD/svg10.dtd">
<svg version="1.0" xmlns="http://www.w3.org/2000/svg"
 width="850.000000pt" height="230.000000pt" viewBox="0 0 850.000000 230.000000"
 preserveAspectRatio="xMidYMid meet">

<g transform="translate(0.000000,230.000000) scale(0.100000,-0.100000)"
fill="#000000" stroke="none">
<path d="M4810 1945 c-275 -59 -503 -264 -586 -527 l-18 -58 -1113 0 c-735 0
-1113 -3 -1113 -10 0 -7 376 -10 1108 -10 l1107 0 0 -160 0 -160 -1110 -2
-1110 -3 1113 -5 1114 -5 22 -70 c105 -328 404 -545 750 -545 342 0 638 219
746 553 l22 67 1119 0 1119 0 0 175 0 175 -1110 0 -1110 0 0 300 0 300 -442
-1 c-337 0 -459 -4 -508 -14z m838 -63 c2 -14 10 -22 23 -22 13 0 19 -7 19
-24 0 -14 -4 -27 -9 -30 -4 -3 -6 -17 -3 -31 6 -34 -15 -58 -47 -52 -15 3 -35
-1 -45 -9 -30 -21 -62 -17 -85 12 -26 33 -26 45 -1 77 13 16 16 28 10 32 -15
9 -12 23 11 46 13 13 27 18 39 14 11 -3 28 -2 37 4 27 16 48 9 51 -17z m-178
-53 c0 -65 -2 -73 -29 -100 -39 -38 -87 -39 -130 -3 -26 21 -31 33 -31 68 0
46 21 83 54 96 11 5 47 9 79 9 l57 1 0 -71z m-50 -154 c59 -31 69 -107 21
-156 -39 -38 -87 -39 -130 -3 -26 21 -31 33 -31 68 0 84 68 128 140 91z m300
-25 c-6 -11 -14 -29 -20 -39 -6 -14 -6 -21 3 -25 9 -5 9 -7 0 -12 -7 -3 -13
-19 -13 -35 0 -19 -5 -29 -15 -29 -10 0 -15 10 -15 30 0 29 -9 38 -23 23 -4
-3 -2 -12 5 -20 21 -26 -21 -39 -119 -34 l-33 1 0 80 0 79 113 3 c61 2 115 2
119 0 4 -2 3 -12 -2 -22z m1680 -470 l0 -160 -827 2 c-821 3 -828 3 -825 23 1
11 5 82 9 158 l6 137 818 0 819 0 0 -160z m-3073 42 l-37 -38 37 -37 c33 -32
35 -37 17 -37 -19 0 -94 62 -94 78 0 18 67 72 89 72 25 0 24 -1 -12 -38z
m1325 1 l38 -37 -37 -38 c-23 -24 -46 -38 -62 -38 -24 0 -24 1 14 41 l40 40
-37 35 c-34 30 -35 34 -16 34 12 0 39 -17 60 -37z m-1162 2 c0 -10 -10 -15
-30 -15 -16 0 -30 -4 -30 -10 0 -5 11 -10 25 -10 14 0 25 -4 25 -10 0 -5 -12
-10 -26 -10 -34 0 -26 -24 9 -28 44 -5 30 -22 -18 -22 l-45 0 0 60 0 60 45 0
c33 0 45 -4 45 -15z m67 -17 l18 -33 3 33 c2 20 9 32 18 32 11 0 14 -15 14
-60 0 -70 -18 -80 -50 -27 l-20 32 0 -32 c0 -23 -5 -33 -15 -33 -12 0 -15 13
-15 60 0 70 18 81 47 28z m171 0 c11 -23 11 -33 0 -55 -11 -23 -21 -29 -56
-31 l-42 -3 0 61 0 61 42 -3 c35 -2 45 -8 56 -30z m101 -24 c11 -31 21 -58 21
-60 0 -11 -31 -2 -36 11 -4 8 -12 15 -19 15 -7 0 -18 -7 -25 -15 -7 -8 -19
-15 -26 -15 -11 0 -9 11 7 52 11 29 23 56 25 60 13 21 33 3 53 -48z m78 24
l18 -33 3 33 c2 20 9 32 18 32 11 0 14 -15 14 -60 0 -70 -18 -80 -50 -27 l-20
32 0 -32 c0 -23 -5 -33 -15 -33 -12 0 -15 13 -15 60 0 70 18 81 47 28z m161
20 c21 -21 13 -29 -22 -23 -27 6 -34 3 -38 -12 -7 -27 1 -43 24 -43 17 0 18 3
8 15 -10 12 -9 16 4 21 28 11 46 -4 46 -36 0 -29 -2 -30 -44 -30 -51 0 -69 17
-69 62 0 48 59 78 91 46z m122 -3 c0 -10 -10 -15 -31 -15 -17 0 -28 -4 -24
-10 3 -5 17 -10 31 -10 13 0 24 -4 24 -10 0 -5 -14 -10 -31 -10 -41 0 -33 -24
9 -28 47 -5 28 -22 -24 -22 l-44 0 0 60 0 60 45 0 c33 0 45 -4 45 -15z m107 7
c17 -11 15 -112 -3 -112 -8 0 -14 9 -14 20 0 13 -7 20 -20 20 -13 0 -20 -7
-20 -20 0 -11 -7 -20 -15 -20 -12 0 -15 13 -15 60 l0 60 38 0 c20 0 42 -4 49
-8z m123 -7 c0 -10 -10 -15 -30 -15 -16 0 -30 -4 -30 -10 0 -5 14 -10 31 -10
17 0 28 -4 24 -10 -3 -5 -18 -10 -31 -10 -34 0 -26 -24 9 -28 44 -5 30 -22
-18 -22 l-45 0 0 60 0 60 45 0 c33 0 45 -4 45 -15z m101 5 c14 -8 19 -21 19
-48 0 -49 -14 -62 -67 -62 l-43 0 0 53 c0 30 3 57 7 60 10 11 62 8 84 -3z
m2007 -17 c-10 -2 -18 -9 -18 -14 0 -5 8 -9 18 -10 12 0 10 -3 -8 -11 l-25
-11 25 -7 25 -8 -27 -1 c-25 -1 -28 2 -28 34 0 32 3 35 28 34 16 -1 20 -3 10
-6z m50 -5 c9 -9 12 -9 12 0 0 8 19 12 55 12 l55 0 0 -35 c0 -19 -4 -35 -10
-35 -5 0 -10 14 -10 31 0 39 -22 34 -31 -7 l-7 -29 -1 27 c-1 32 -17 44 -36
28 -10 -8 -12 -17 -5 -29 7 -15 4 -18 -20 -18 -23 0 -27 3 -19 13 7 9 7 19 -1
33 -12 23 -1 28 18 9z m158 -3 c6 -14 8 -13 20 2 12 16 13 14 14 -19 0 -40
-13 -49 -29 -20 -10 16 -10 16 -11 0 0 -10 -4 -18 -10 -18 -5 0 -10 16 -10 35
0 36 16 47 26 20z m101 -2 c3 -7 -3 -9 -16 -6 -15 4 -21 1 -21 -10 0 -21 20
-33 30 -17 5 9 9 9 14 1 8 -13 -15 -24 -41 -19 -22 4 -29 34 -12 54 14 17 40
15 46 -3z m65 5 c-7 -7 -12 -22 -12 -35 0 -13 -4 -23 -10 -23 -5 0 -10 13 -10
29 0 16 -6 32 -12 34 -7 3 3 6 22 6 26 1 31 -2 22 -11z m-2942 -278 c0 -5 -8
-10 -17 -11 -15 0 -15 -2 2 -9 17 -7 17 -9 3 -9 -10 -1 -18 -5 -18 -11 0 -5 8
-10 18 -10 14 0 14 -2 3 -9 -24 -15 -41 -1 -41 35 0 30 3 34 25 34 14 0 25 -4
25 -10z m38 -2 c10 -10 15 -10 22 2 7 11 10 5 10 -22 0 -41 -13 -49 -29 -20
-10 16 -10 16 -11 0 0 -10 -4 -18 -10 -18 -5 0 -10 16 -10 35 0 37 8 43 28 23z"/>
<path d="M5565 1839 c-3 -4 8 -21 25 -37 33 -33 41 -31 33 10 -3 18 -13 28
-29 31 -14 2 -27 1 -29 -4z"/>
<path d="M5322 1618 c-7 -7 -12 -16 -12 -22 0 -5 6 -2 14 9 8 12 20 16 35 12
11 -3 19 -1 15 4 -8 13 -38 11 -52 -3z"/>
<path d="M5319 1568 c7 -10 23 -17 35 -17 20 1 20 2 1 6 -11 3 -27 10 -35 17
-13 10 -13 9 -1 -6z"/>
<path d="M5598 1643 c6 -2 18 -2 25 0 6 3 1 5 -13 5 -14 0 -19 -2 -12 -5z"/>
<path d="M5660 1635 c0 -8 5 -15 10 -15 6 0 10 7 10 15 0 8 -4 15 -10 15 -5 0
-10 -7 -10 -15z"/>
<path d="M5519 1611 c-3 -7 -3 -28 -1 -47 5 -42 32 -47 32 -6 0 32 -25 73 -31
53z"/>
<path d="M5950 1255 c-23 -28 17 -72 43 -46 9 9 6 11 -13 9 -19 -2 -25 2 -25
17 0 15 6 19 23 18 13 -2 21 1 17 7 -9 15 -31 12 -45 -5z"/>
<path d="M6021 1233 c1 -21 3 -30 6 -20 2 9 8 17 13 17 5 0 14 -8 19 -17 8
-15 10 -11 11 20 0 33 -3 37 -25 37 -22 0 -25 -4 -24 -37z m39 17 c0 -5 -7
-10 -15 -10 -8 0 -15 5 -15 10 0 6 7 10 15 10 8 0 15 -4 15 -10z"/>
<path d="M6093 1235 c0 -22 2 -30 4 -17 2 12 2 30 0 40 -3 9 -5 -1 -4 -23z"/>
<path d="M6118 1263 c6 -2 13 -19 13 -36 2 -27 2 -28 6 -7 2 14 12 31 21 38
13 10 11 12 -19 11 -19 0 -28 -3 -21 -6z"/>
<path d="M6183 1235 c0 -22 2 -30 4 -17 2 12 2 30 0 40 -3 9 -5 -1 -4 -23z"/>
<path d="M6210 1255 c-24 -29 18 -72 43 -45 9 10 7 11 -9 6 -14 -4 -24 -2 -27
7 -8 22 7 39 28 31 13 -5 16 -4 11 4 -10 16 -31 15 -46 -3z"/>
<path d="M6281 1239 c-6 -18 -11 -32 -11 -33 0 -1 14 -1 30 -1 17 0 30 0 30 1
0 12 -24 64 -30 64 -4 0 -13 -14 -19 -31z"/>
<path d="M6352 1238 c-2 -34 1 -38 21 -37 15 1 17 3 5 6 -10 2 -18 17 -21 36
-4 31 -4 31 -5 -5z"/>
<path d="M6400 1235 c0 -32 3 -35 28 -34 16 1 20 3 10 6 -12 3 -18 14 -18 34
0 16 -4 29 -10 29 -5 0 -10 -16 -10 -35z"/>
<path d="M6455 1255 c4 -11 10 -28 13 -39 4 -15 7 -12 18 14 17 40 17 45 1 31
-10 -8 -17 -7 -27 2 -10 10 -12 8 -5 -8z"/>
<path d="M6820 1235 c0 -32 2 -35 28 -34 23 2 24 2 5 6 -27 5 -30 20 -5 26 16
4 16 5 0 6 -10 0 -18 5 -18 10 0 5 8 12 18 14 13 4 11 5 -5 6 -20 1 -23 -4
-23 -34z"/>
<path d="M6889 1252 c6 -11 6 -24 -2 -37 -9 -18 -9 -18 5 -7 11 9 18 10 23 2
3 -5 11 -10 17 -10 7 0 6 5 -2 15 -15 18 -6 45 15 45 10 0 15 -10 15 -30 0
-16 5 -30 10 -30 6 0 10 13 10 29 0 16 6 32 13 34 6 3 -6 6 -28 6 -23 1 -46
-4 -53 -11 -9 -9 -12 -9 -12 0 0 7 -5 12 -10 12 -7 0 -7 -6 -1 -18z"/>
<path d="M7013 1235 c0 -22 2 -30 4 -17 2 12 2 30 0 40 -3 9 -5 -1 -4 -23z"/>
<path d="M7041 1233 c1 -24 3 -30 6 -15 2 12 9 20 14 17 11 -7 11 -3 3 19 -11
29 -24 17 -23 -21z"/>
<path d="M7079 1250 c-1 -11 -2 -25 -3 -32 -1 -6 5 -13 12 -15 8 -3 12 7 12
31 0 37 -19 51 -21 16z"/>
<path d="M7120 1255 c-26 -31 14 -75 43 -46 9 9 5 11 -13 9 -19 -2 -25 2 -25
17 0 15 6 19 23 18 13 -2 21 1 17 7 -9 14 -31 12 -45 -5z"/>
<path d="M7187 1262 c6 -4 13 -21 16 -37 l4 -30 2 32 c0 17 7 34 14 36 6 3 -1
6 -18 6 -16 0 -25 -3 -18 -7z"/>
<path d="M5880 1125 c0 -32 2 -35 28 -34 23 2 24 2 5 6 -27 5 -30 20 -5 26 16
4 16 5 0 6 -26 2 -22 19 5 24 19 4 18 4 -5 6 -26 1 -28 -2 -28 -34z"/>
<path d="M5951 1125 c0 -31 2 -35 9 -20 7 18 8 19 15 3 12 -31 25 -20 24 20
-1 26 -3 30 -6 13 l-5 -25 -19 25 -19 24 1 -40z"/>
<path d="M6020 1126 c0 -29 4 -36 19 -36 10 0 24 7 32 16 16 20 1 48 -30 52
-18 3 -21 -1 -21 -32z m40 -7 c0 -10 -7 -19 -15 -19 -15 0 -21 31 -9 43 11 10
24 -3 24 -24z"/>
<path d="M6093 1127 c-10 -33 -10 -34 18 -33 32 1 33 4 19 40 -13 35 -25 33
-37 -7z"/>
<path d="M6162 1125 c0 -23 3 -30 5 -17 l4 22 19 -22 19 -23 -1 40 c0 23 -3
30 -5 17 l-4 -22 -19 22 -19 23 1 -40z"/>
<path d="M6242 1151 c-8 -4 -12 -19 -10 -32 2 -18 10 -25 31 -27 19 -2 27 1
27 12 0 19 -16 21 -23 4 -3 -10 -7 -10 -17 -1 -17 16 -4 47 16 39 8 -3 12 -2
9 4 -7 12 -16 12 -33 1z"/>
<path d="M6310 1125 c0 -32 2 -35 28 -34 23 2 24 2 5 6 -27 5 -30 20 -5 26 16
4 16 5 0 6 -26 2 -22 19 5 24 19 4 18 4 -5 6 -26 1 -28 -2 -28 -34z"/>
<path d="M6370 1123 c1 -31 3 -35 11 -20 12 21 29 22 29 2 0 -8 4 -15 9 -15 5
0 8 15 7 33 -1 27 -6 32 -29 35 -25 3 -27 1 -27 -35z m40 17 c0 -5 -7 -10 -16
-10 -8 0 -12 5 -9 10 3 6 10 10 16 10 5 0 9 -4 9 -10z"/>
<path d="M6440 1125 c0 -32 3 -35 28 -34 16 1 20 3 10 6 -10 2 -18 8 -18 13 0
5 8 11 18 13 16 4 16 5 0 6 -10 0 -18 5 -18 10 0 5 8 12 18 14 10 3 6 5 -10 6
-25 1 -28 -2 -28 -34z"/>
<path d="M6510 1126 c0 -29 4 -36 19 -36 10 0 24 7 32 16 16 20 1 48 -30 52
-18 3 -21 -1 -21 -32z m38 -4 c2 -15 -2 -22 -12 -22 -11 0 -16 9 -16 26 0 31
23 28 28 -4z"/>
<path d="M6733 1125 c0 -22 2 -30 4 -17 2 12 2 30 0 40 -3 9 -5 -1 -4 -23z"/>
<path d="M6761 1125 c1 -40 1 -40 10 -10 5 18 5 33 -1 39 -7 7 -10 -4 -9 -29z"/>
<path d="M6800 1139 c0 -11 -4 -17 -10 -14 -16 10 -12 -11 5 -25 13 -11 15 -7
15 24 0 20 -2 36 -5 36 -3 0 -5 -9 -5 -21z"/>
<path d="M6858 1153 c6 -2 13 -19 13 -36 2 -27 2 -28 6 -7 2 14 12 31 21 38
13 10 11 12 -19 11 -19 0 -28 -3 -21 -6z"/>
<path d="M6922 1125 c0 -22 2 -32 5 -22 2 9 11 17 18 17 7 0 16 -8 18 -17 3
-10 5 0 5 22 0 22 -2 32 -5 23 -2 -10 -11 -18 -18 -18 -7 0 -16 8 -18 18 -3 9
-5 -1 -5 -23z"/>
<path d="M6990 1125 c0 -32 3 -35 28 -34 l27 0 -25 11 -25 11 25 7 c16 5 19 8
8 9 -10 1 -18 5 -18 10 0 5 8 12 18 14 10 3 6 5 -10 6 -25 1 -28 -2 -28 -34z"/>
<path d="M7081 1128 c5 -18 9 -34 9 -35 0 -2 5 -3 10 -3 6 0 10 9 10 21 0 11
-4 17 -10 14 -5 -3 -10 3 -10 14 0 12 -4 21 -9 21 -6 0 -6 -12 0 -32z"/>
<path d="M7110 1150 c0 -15 23 -60 30 -60 8 0 20 37 19 60 0 8 -5 4 -11 -10
l-10 -25 -9 23 c-9 23 -19 30 -19 12z"/>
<path d="M7170 1125 c0 -19 5 -35 10 -35 6 0 10 16 10 35 0 19 -4 35 -10 35
-5 0 -10 -16 -10 -35z"/>
<path d="M7200 1125 l0 -35 49 0 c55 0 82 20 64 48 -5 10 -20 18 -32 20 -18 3
-21 -2 -21 -27 0 -24 -4 -31 -20 -31 -16 0 -20 7 -20 30 0 17 -4 30 -10 30 -5
0 -10 -16 -10 -35z m98 -3 c2 -15 -2 -22 -12 -22 -11 0 -16 9 -16 26 0 31 23
28 28 -4z"/>
<path d="M4660 1182 c0 -34 7 -43 26 -35 8 3 14 18 14 34 0 22 -5 29 -20 29
-15 0 -20 -7 -20 -28z"/>
<path d="M4785 1180 c-3 -5 -1 -10 4 -10 6 0 11 5 11 10 0 6 -2 10 -4 10 -3 0
-8 -4 -11 -10z"/>
<path d="M5240 1206 c0 -10 9 -16 21 -16 24 0 21 23 -4 28 -10 2 -17 -3 -17
-12z"/>
<path d="M5470 1177 c0 -31 3 -34 21 -30 26 7 23 56 -3 61 -14 3 -18 -4 -18
-31z"/>
<path d="M360 1180 l0 -170 380 0 380 0 0 170 0 170 -380 0 -380 0 0 -170z
m305 90 c5 -8 11 -8 20 0 9 8 15 8 20 0 3 -6 12 -7 18 -3 19 12 125 14 132 3
4 -6 -1 -13 -9 -16 -10 -4 -16 -18 -16 -36 0 -39 -24 -32 -29 8 -4 28 -4 28
-10 5 -9 -34 -36 -49 -61 -33 -11 7 -20 8 -20 3 0 -5 -16 -9 -35 -8 -34 1 -35
2 -35 44 0 41 11 55 25 33z m-124 -122 c0 -10 2 -10 6 0 2 6 22 12 43 12 33 0
40 -4 49 -27 l11 -28 -5 28 c-4 20 -1 27 10 27 9 0 15 -9 15 -25 0 -16 6 -25
15 -25 9 0 15 9 15 25 0 16 6 25 15 25 9 0 15 -9 15 -25 0 -14 5 -25 10 -25 6
0 10 11 10 24 0 23 0 23 139 25 131 2 140 1 146 -18 3 -11 1 -30 -5 -41 -10
-18 -19 -21 -73 -18 -60 3 -62 4 -68 33 l-7 30 -1 -32 c-1 -30 -4 -33 -30 -33
-17 0 -33 5 -36 10 -4 7 -11 7 -18 2 -19 -15 -169 -14 -179 0 -6 9 -10 10 -15
2 -5 -6 -22 -11 -40 -12 -23 0 -32 5 -36 19 -3 12 -13 19 -29 18 -23 -2 -23
-2 0 -6 37 -7 28 -35 -10 -31 -30 3 -33 6 -36 41 l-3 37 45 0 c30 0 46 -4 47
-12z"/>
<path d="M740 1235 c0 -8 5 -15 10 -15 6 0 10 7 10 15 0 8 -4 15 -10 15 -5 0
-10 -7 -10 -15z"/>
<path d="M837 1120 c3 -11 7 -20 9 -20 2 0 4 9 4 20 0 11 -4 20 -9 20 -5 0 -7
-9 -4 -20z"/>
<path d="M990 1124 c0 -8 5 -12 10 -9 6 4 8 11 5 16 -9 14 -15 11 -15 -7z"/>
<path d="M938 1113 c7 -3 16 -2 19 1 4 3 -2 6 -13 5 -11 0 -14 -3 -6 -6z"/>
<path d="M1160 1180 l0 -170 380 0 380 0 0 170 0 170 -380 0 -380 0 0 -170z
m318 88 c7 -7 15 -8 24 -1 19 15 135 14 147 -1 15 -18 26 -76 14 -76 -5 0 -15
6 -21 12 -9 9 -15 10 -20 2 -9 -13 -84 -13 -94 0 -4 6 -11 6 -20 -1 -7 -6 -31
-10 -53 -9 -36 1 -40 4 -43 29 -2 16 -1 35 2 43 6 17 47 19 64 2z m332 -119
c0 -5 -4 -9 -10 -9 -5 0 -10 -13 -10 -30 0 -43 -30 -41 -31 3 -2 31 -2 31 -6
4 -5 -32 -31 -47 -44 -26 -6 10 -9 10 -9 2 0 -9 -19 -13 -60 -13 -34 0 -60 4
-60 10 0 6 -8 5 -20 -2 -16 -10 -24 -10 -39 -1 -15 10 -21 10 -25 0 -3 -8 -10
-6 -21 8 -15 19 -17 19 -26 3 -12 -21 -99 -26 -99 -7 0 8 -4 8 -14 -1 -8 -6
-25 -10 -38 -8 -19 2 -24 10 -26 40 l-3 37 270 0 c163 0 271 -4 271 -10z"/>
<path d="M1451 1234 c0 -11 3 -14 6 -6 3 7 2 16 -1 19 -3 4 -6 -2 -5 -13z"/>
<path d="M1547 1230 c3 -11 7 -20 9 -20 2 0 4 9 4 20 0 11 -4 20 -9 20 -5 0
-7 -9 -4 -20z"/>
<path d="M1590 1230 c0 -11 2 -20 4 -20 2 0 6 9 9 20 3 11 1 20 -4 20 -5 0 -9
-9 -9 -20z"/>
<path d="M1311 1124 c0 -11 3 -14 6 -6 3 7 2 16 -1 19 -3 4 -6 -2 -5 -13z"/>
<path d="M1530 1126 c0 -18 6 -19 35 -6 11 5 15 9 8 9 -6 1 -18 4 -27 7 -11 4
-16 1 -16 -10z"/>
<path d="M1388 1113 c7 -3 16 -2 19 1 4 3 -2 6 -13 5 -11 0 -14 -3 -6 -6z"/>
<path d="M1648 1113 c7 -3 16 -2 19 1 4 3 -2 6 -13 5 -11 0 -14 -3 -6 -6z"/>
<path d="M2081 1238 c-1 -35 1 -38 27 -37 23 0 24 1 7 8 -11 4 -23 21 -26 37
-6 27 -7 27 -8 -8z"/>
<path d="M2140 1235 l0 -35 58 2 59 3 -10 33 c-13 40 -25 41 -38 2 -8 -22 -17
-30 -35 -30 -28 0 -32 16 -6 23 16 4 16 5 0 6 -26 2 -22 19 5 24 19 4 18 4 -5
6 -26 1 -28 -2 -28 -34z"/>
<path d="M2270 1249 c0 -10 7 -19 15 -19 8 0 15 -5 15 -11 0 -6 -7 -9 -15 -5
-8 3 -15 1 -15 -5 0 -15 43 -7 48 9 2 7 -5 16 -17 19 -31 8 -26 20 9 20 26 0
30 -4 30 -29 0 -15 5 -28 10 -28 6 0 10 13 10 29 0 16 6 32 13 34 6 3 -14 5
-45 5 -50 0 -58 -3 -58 -19z"/>
<path d="M2832 1235 c0 -23 3 -30 5 -17 l4 22 19 -22 19 -23 -1 40 c0 23 -3
30 -5 17 l-4 -22 -19 22 -19 23 1 -40z"/>
<path d="M2900 1235 c0 -32 2 -35 28 -34 23 2 24 2 5 6 -13 2 -23 9 -23 14 0
5 10 10 23 10 16 1 18 2 5 6 -10 2 -18 8 -18 13 0 5 8 11 18 13 10 3 6 5 -10
6 -25 1 -28 -2 -28 -34z"/>
<path d="M2971 1239 c-6 -18 -11 -32 -11 -33 0 -1 14 -1 30 -1 17 0 30 0 30 1
0 12 -24 64 -30 64 -4 0 -13 -14 -19 -31z"/>
<path d="M3030 1233 c1 -31 3 -35 11 -20 12 21 29 22 29 2 0 -8 4 -15 9 -15 5
0 8 15 7 33 -1 27 -6 32 -29 35 -25 3 -27 1 -27 -35z m40 17 c0 -5 -7 -10 -15
-10 -8 0 -15 5 -15 10 0 6 7 10 15 10 8 0 15 -4 15 -10z"/>
<path d="M3430 1211 c0 -19 20 -61 28 -61 5 0 13 16 19 35 6 19 8 35 3 35 -4
0 -11 -10 -14 -22 l-7 -23 -9 23 c-10 22 -20 29 -20 13z"/>
<path d="M3503 1188 c1 -25 7 -34 24 -36 17 -3 24 3 29 23 4 15 2 31 -5 38 -8
8 -11 3 -11 -21 0 -42 -27 -43 -34 -2 -6 30 -6 30 -3 -2z"/>
<path d="M3570 1186 c0 -33 2 -36 28 -35 16 1 20 3 10 6 -11 3 -18 14 -18 28
0 13 -4 27 -10 30 -6 4 -10 -8 -10 -29z"/>
<path d="M3631 1184 c1 -24 3 -30 6 -16 2 12 9 20 14 17 15 -10 10 12 -6 25
-13 11 -15 7 -14 -26z"/>
<path d="M3669 1201 c-1 -12 -2 -26 -3 -33 -1 -6 5 -13 12 -15 8 -3 12 6 12
26 0 34 -19 53 -21 22z"/>
<path d="M3700 1185 c0 -32 3 -35 28 -34 16 1 20 3 10 6 -10 2 -18 8 -18 13 0
5 8 11 18 13 16 4 16 5 0 6 -10 0 -18 5 -18 10 0 5 8 12 18 14 10 3 6 5 -10 6
-25 1 -28 -2 -28 -34z"/>
<path d="M3771 1183 c1 -21 3 -30 6 -20 2 9 8 17 13 17 5 0 14 -8 20 -17 8
-15 10 -11 8 17 -2 28 -8 36 -25 38 -21 3 -23 -1 -22 -35z m39 17 c0 -5 -7
-10 -15 -10 -8 0 -15 5 -15 10 0 6 7 10 15 10 8 0 15 -4 15 -10z"/>
<path d="M3856 1212 c-3 -5 -10 -20 -15 -34 -9 -23 -7 -25 20 -24 27 1 29 4
24 26 -8 30 -21 45 -29 32z"/>
<path d="M3910 1186 c0 -32 3 -36 26 -36 23 0 25 3 22 33 -2 24 -8 33 -25 35
-20 3 -23 -1 -23 -32z m35 14 c3 -5 -1 -10 -9 -10 -9 0 -16 5 -16 10 0 6 4 10
9 10 6 0 13 -4 16 -10z m5 -30 c0 -5 -7 -10 -15 -10 -8 0 -15 5 -15 10 0 6 7
10 15 10 8 0 15 -4 15 -10z"/>
<path d="M3982 1188 l-2 -38 53 1 c28 1 44 3 35 6 -10 2 -18 8 -18 13 0 5 8
11 18 13 16 4 16 5 0 6 -10 0 -18 5 -18 10 0 5 8 12 18 14 10 3 6 5 -10 6 -25
1 -28 -3 -28 -29 0 -23 -5 -30 -19 -30 -15 0 -21 8 -24 33 -4 31 -4 31 -5 -5z"/>
<path d="M1990 1145 c-24 -28 17 -72 43 -46 9 9 8 11 -7 5 -11 -4 -21 -2 -26
7 -12 18 7 39 27 32 11 -4 14 -2 9 5 -10 16 -31 15 -46 -3z"/>
<path d="M2059 1144 c-16 -20 -1 -48 29 -52 25 -4 39 32 22 53 -16 19 -34 19
-51 -1z m47 -33 c-11 -18 -36 -13 -36 7 0 10 3 22 7 26 10 10 37 -20 29 -33z"/>
<path d="M2131 1123 c1 -21 3 -30 6 -20 6 21 19 22 27 2 11 -29 26 -15 25 23
-1 32 -2 34 -8 12 l-7 -25 -15 23 c-20 32 -29 27 -28 -15z"/>
<path d="M2210 1145 c-23 -28 17 -72 42 -47 8 8 5 9 -11 5 -19 -5 -22 -2 -19
18 2 17 8 23 22 21 11 -2 15 1 11 7 -9 16 -30 14 -45 -4z"/>
<path d="M2280 1125 c0 -32 2 -35 28 -34 23 2 24 2 5 6 -27 5 -30 20 -5 26 16
4 16 5 0 6 -26 2 -22 19 5 24 19 4 18 4 -5 6 -26 1 -28 -2 -28 -34z"/>
<path d="M2340 1124 c0 -35 1 -36 14 -18 15 19 15 19 29 -1 14 -18 15 -17 13
15 -1 30 -5 35 -29 38 -25 3 -27 1 -27 -34z m40 16 c0 -5 -7 -10 -16 -10 -8 0
-12 5 -9 10 3 6 10 10 16 10 5 0 9 -4 9 -10z"/>
<path d="M2410 1125 c0 -19 5 -35 11 -35 6 0 9 7 5 15 -3 8 -1 15 5 15 5 0 12
-7 15 -15 11 -28 24 -15 23 23 -1 32 -2 34 -8 12 l-7 -25 -15 23 c-20 31 -29
27 -29 -13z"/>
<path d="M2638 1148 c5 -7 12 -24 15 -38 4 -22 4 -21 6 7 0 17 7 34 14 36 6 3
-1 6 -17 6 -22 1 -26 -2 -18 -11z"/>
<path d="M2691 1125 c1 -22 3 -32 6 -22 5 21 33 23 33 2 0 -8 5 -15 10 -15 6
0 10 16 10 35 0 19 -4 35 -10 35 -5 0 -10 -7 -10 -15 0 -20 -17 -19 -29 3 -8
13 -10 9 -10 -23z"/>
<path d="M2771 1123 c1 -21 3 -30 6 -20 2 9 8 17 13 17 5 0 14 -8 20 -17 8
-15 10 -11 8 17 -2 28 -8 36 -25 38 -21 3 -23 -1 -22 -35z m39 17 c0 -5 -7
-10 -15 -10 -8 0 -15 5 -15 10 0 6 7 10 15 10 8 0 15 -4 15 -10z"/>
<path d="M2840 1125 l0 -36 55 3 c59 3 60 4 45 42 -13 35 -27 33 -35 -4 -5
-23 -12 -30 -31 -30 -28 0 -32 16 -6 23 16 4 16 5 0 6 -26 2 -22 19 5 24 19 4
18 4 -5 6 -26 1 -28 -2 -28 -34z"/>
<path d="M2958 1153 c6 -2 12 -18 12 -34 0 -16 5 -29 10 -29 6 0 10 13 10 29
0 16 6 32 13 34 6 3 -4 5 -23 5 -19 0 -29 -2 -22 -5z"/>
<path d="M3020 1125 c0 -32 2 -35 28 -34 23 2 24 2 5 6 -13 2 -23 9 -23 14 0
5 10 10 23 10 16 1 18 2 5 6 -10 2 -18 8 -18 13 0 5 8 11 18 13 10 3 6 5 -10
6 -25 1 -28 -2 -28 -34z"/>
<path d="M3087 1154 c-11 -11 -8 -64 3 -64 6 0 10 8 10 18 1 16 1 16 14 0 20
-27 26 -22 25 20 -1 26 -3 30 -6 13 l-5 -25 -17 22 c-9 13 -20 20 -24 16z"/>
<path d="M3160 1125 c0 -32 2 -35 28 -34 23 2 24 2 5 6 -27 5 -30 20 -5 26 16
4 16 5 0 6 -26 2 -22 19 5 24 19 4 18 4 -5 6 -26 1 -28 -2 -28 -34z"/>
<path d="M3220 1125 c0 -34 2 -36 28 -33 23 3 27 8 27 33 0 25 -4 30 -27 33
-26 3 -28 1 -28 -33z m45 0 c0 -10 -6 -20 -12 -22 -8 -3 -13 5 -13 22 0 17 5
25 13 23 6 -3 12 -13 12 -23z"/>
<path d="M680 905 c0 -19 5 -35 10 -35 6 0 10 8 10 18 1 16 1 16 11 0 17 -29
29 -20 28 20 -1 32 -2 34 -8 12 l-7 -25 -15 23 c-20 31 -29 27 -29 -13z"/>
<path d="M760 905 c0 -32 2 -35 28 -34 23 2 24 2 5 6 -27 5 -31 23 -5 24 14 0
14 2 -3 9 -19 8 -19 8 5 18 l25 11 -27 0 c-25 1 -28 -2 -28 -34z"/>
<path d="M1480 904 c0 -31 3 -35 23 -32 41 6 32 67 -10 68 -8 0 -13 -14 -13
-36z m40 -4 c0 -11 -7 -20 -15 -20 -8 0 -15 9 -15 20 0 11 7 20 15 20 8 0 15
-9 15 -20z"/>
<path d="M1550 906 c0 -32 3 -36 25 -36 47 0 44 61 -4 68 -18 3 -21 -1 -21
-32z m46 -15 c-11 -18 -36 -13 -36 7 0 10 3 22 7 26 10 10 37 -20 29 -33z"/>
<path d="M2172 908 c-2 -35 0 -38 26 -37 22 1 23 2 5 6 -16 3 -23 13 -26 36
-4 31 -4 31 -5 -5z"/>
<path d="M2236 924 c-19 -19 -20 -26 -4 -42 15 -15 45 -16 53 -2 4 7 -2 9 -19
4 -22 -5 -26 -3 -26 15 0 15 6 21 21 21 11 0 17 5 14 10 -9 14 -21 12 -39 -6z"/>
<path d="M2901 904 c1 -24 3 -30 6 -16 2 12 9 20 14 17 15 -10 10 12 -6 25
-13 11 -15 7 -14 -26z"/>
<path d="M2937 911 c-3 -14 -2 -30 1 -36 4 -5 9 3 12 19 7 41 30 46 30 7 0
-17 5 -31 10 -31 6 0 10 10 10 23 0 13 6 29 13 36 10 10 4 12 -30 10 -36 -2
-42 -6 -46 -28z"/>
<path d="M3690 937 c0 -15 23 -67 30 -67 10 0 32 61 25 69 -3 3 -8 -5 -12 -17
-6 -25 -23 -30 -23 -8 0 8 -4 18 -10 21 -5 3 -10 4 -10 2z"/>
<path d="M3762 909 c2 -29 7 -34 28 -34 22 0 25 5 27 35 1 33 1 33 -5 6 -9
-38 -32 -47 -32 -12 0 13 -5 28 -11 31 -7 5 -9 -5 -7 -26z"/>
<path d="M6162 928 c-7 -7 -12 -15 -12 -19 0 -16 31 -38 45 -33 22 9 18 23 -5
17 -16 -4 -20 0 -20 17 0 17 4 21 20 17 11 -3 20 -1 20 4 0 13 -34 11 -48 -3z"/>
<path d="M6231 903 c1 -21 3 -30 6 -20 5 18 33 24 33 7 0 -5 4 -10 8 -10 4 0
7 12 7 28 -1 21 -7 28 -28 30 -25 3 -27 1 -26 -35z m39 17 c0 -5 -4 -10 -9
-10 -6 0 -13 5 -16 10 -3 6 1 10 9 10 9 0 16 -4 16 -10z"/>
<path d="M6950 905 c0 -32 2 -35 28 -34 23 2 24 2 5 6 -13 2 -23 9 -23 14 0 5
10 9 23 10 21 1 21 1 -3 9 l-25 7 25 11 25 11 -27 0 c-25 1 -28 -2 -28 -34z"/>
<path d="M7016 910 c8 -45 11 -48 29 -24 13 17 14 17 15 2 0 -10 4 -18 9 -18
11 0 33 61 26 69 -3 3 -9 -5 -12 -18 l-6 -23 -13 23 -14 24 -6 -24 -7 -23 -14
23 c-13 23 -13 23 -7 -11z"/>
<path d="M7640 905 c0 -31 3 -35 26 -35 27 0 24 20 -4 20 -15 1 -15 2 2 15 20
15 20 15 0 16 -15 1 -14 3 6 9 l25 8 -27 1 c-25 1 -28 -2 -28 -34z"/>
<path d="M7715 922 c3 -7 0 -23 -7 -35 -10 -20 -10 -21 5 -8 14 11 20 11 34 0
15 -13 15 -12 5 8 -7 12 -10 28 -7 35 4 9 -2 14 -15 14 -13 0 -19 -5 -15 -14z"/>
</g>
</svg>
