{
            "__type__": "dtoesa:EIA:EIA_results_tech",
            "name": "none",
            "description": "",
            "impact_hydrodynamics": {
                "__type__": "dtoesa:EIA:EIA_tech",
                "name": "none",
                "description": "Environmental impacts of the hydrodynamics technology group",
                "eis_dict": [
                    {
                        "__type__": "dtoesa:EIA:EIA_results",
                        "name": "none",
                        "description": "Results of the Energy Modification",
                        "function_name": "Energy Modification",
                        "score": -10.0
                    },
                    {
                        "__type__": "dtoesa:EIA:EIA_results",
                        "name": "none",
                        "description": "Results of the Collision Risk",
                        "function_name": "Collision Risk",
                        "score": -10.0
                    },
                    {
                        "__type__": "dtoesa:EIA:EIA_results",
                        "name": "none",
                        "description": "Results of the Turbidity",
                        "function_name": "Turbidity",
                        "score": -10.0
                    },
                    {
                        "__type__": "dtoesa:EIA:EIA_results",
                        "name": "none",
                        "description": "Results of the Underwater Noise",
                        "function_name": "Underwater Noise",
                        "score": -10.0
                    },
                    {
                        "__type__": "dtoesa:EIA:EIA_results",
                        "name": "none",
                        "description": "Results of the Reserve Effect",
                        "function_name": "Reserve Effect",
                        "score": 10.0
                    },
                    {
                        "__type__": "dtoesa:EIA:EIA_results",
                        "name": "none",
                        "description": "Results of the Reef Effect",
                        "function_name": "Reef Effect",
                        "score": 10.0
                    },
                    {
                        "__type__": "dtoesa:EIA:EIA_results",
                        "name": "none",
                        "description": "Results of the Resting Place",
                        "function_name": "Resting Place",
                        "score": 10.0
                    }
                ],
                "global_eis": {
                    "__type__": "dtoesa:EIA:EIA_global",
                    "name": "none",
                    "description": "Global environmental impact of the hydrodynamics technology group",
                    "negative_impact": -10.0,
                    "max_negative_impact": -10.0,
                    "min_negative_impact": -10.0,
                    "positive_impact": 10.0,
                    "max_positive_impact": 10.0,
                    "min_positive_impact": 10.0
                },
                "confidence_dict": [
                    {
                        "__type__": "dtoesa:EIA:EIA_confidence_dict",
                        "name": "none",
                        "description": "Level of confidence of the Energy Modification's results",
                        "function_name": "Energy Modification",
                        "confidence_level": 2.0
                    },
                    {
                        "__type__": "dtoesa:EIA:EIA_confidence_dict",
                        "name": "none",
                        "description": "Level of confidence of the Collision Risk's results",
                        "function_name": "Collision Risk",
                        "confidence_level": 2.0
                    },
                    {
                        "__type__": "dtoesa:EIA:EIA_confidence_dict",
                        "name": "none",
                        "description": "Level of confidence of the Turbidity's results",
                        "function_name": "Turbidity",
                        "confidence_level": 2.0
                    },
                    {
                        "__type__": "dtoesa:EIA:EIA_confidence_dict",
                        "name": "none",
                        "description": "Level of confidence of the Underwater Noise's results",
                        "function_name": "Underwater Noise",
                        "confidence_level": 2.0
                    },
                    {
                        "__type__": "dtoesa:EIA:EIA_confidence_dict",
                        "name": "none",
                        "description": "Level of confidence of the Reserve Effect's results",
                        "function_name": "Reserve Effect",
                        "confidence_level": 2.0
                    },
                    {
                        "__type__": "dtoesa:EIA:EIA_confidence_dict",
                        "name": "none",
                        "description": "Level of confidence of the Reef Effect's results",
                        "function_name": "Reef Effect",
                        "confidence_level": 2.0
                    },
                    {
                        "__type__": "dtoesa:EIA:EIA_confidence_dict",
                        "name": "none",
                        "description": "Level of confidence of the Resting Place's results",
                        "function_name": "Resting Place",
                        "confidence_level": 2.0
                    }
                ],
                "recommendation_dict": [
                    {
                        "__type__": "dtoesa:EIA:EIA_recommendation_dict",
                        "name": "none",
                        "description": "Recommendations to improve the results of Energy Modification",
                        "function_name": "Energy Modification",
                        "generic_explanation": "score results of a very high level of energy extraction",
                        "general_recommendation": "decrease imperatively the number of devices, increase the space between device",
                        "detailed_recommendation": "monitoring of the sedimentary evolution in the farm area"
                    },
                    {
                        "__type__": "dtoesa:EIA:EIA_recommendation_dict",
                        "name": "none",
                        "description": "Recommendations to improve the results of Collision Risk",
                        "function_name": "Collision Risk",
                        "generic_explanation": "score results of a very high number of devices",
                        "general_recommendation": "decrease imperatively the number of devices, increase the space between device",
                        "detailed_recommendation": "nan"
                    },
                    {
                        "__type__": "dtoesa:EIA:EIA_recommendation_dict",
                        "name": "none",
                        "description": "Recommendations to improve the results of Turbidity",
                        "function_name": "Turbidity",
                        "generic_explanation": "score results of  the fact that the induced turbidity is higher than the initial",
                        "general_recommendation": "decrease imperatively the number of devices, increase the space between device",
                        "detailed_recommendation": "monitoring of the sedimentary evolution in the farm area"
                    },
                    {
                        "__type__": "dtoesa:EIA:EIA_recommendation_dict",
                        "name": "none",
                        "description": "Recommendations to improve the results of Underwater Noise",
                        "function_name": "Underwater Noise",
                        "generic_explanation": "score results of the very high level of noise produced by devices",
                        "general_recommendation": "use specific technical to reduce imperatively the noise of devices, monotoring of the device area",
                        "detailed_recommendation": "monitoring passive acoustics (to detect particular cavitation), use repellents bubble curtains etc"
                    },
                    {
                        "__type__": "dtoesa:EIA:EIA_recommendation_dict",
                        "name": "none",
                        "description": "Recommendations to improve the results of Reserve Effect",
                        "function_name": "Reserve Effect",
                        "generic_explanation": "score results of a low surface of fishing restriction",
                        "general_recommendation": "Increase fishing restriction surfaces",
                        "detailed_recommendation": "favor the total restriction "
                    },
                    {
                        "__type__": "dtoesa:EIA:EIA_recommendation_dict",
                        "name": "none",
                        "description": "Recommendations to improve the results of Reef Effect",
                        "function_name": "Reef Effect",
                        "generic_explanation": "increase the number of machines, favor a vertical design",
                        "general_recommendation": "Favor an orientation facing the current, The scour protection can increase the reef effect",
                        "detailed_recommendation": "nan"
                    },
                    {
                        "__type__": "dtoesa:EIA:EIA_recommendation_dict",
                        "name": "none",
                        "description": "Recommendations to improve the results of Resting Place",
                        "function_name": "Resting Place",
                        "generic_explanation": "score results of a low surface of devices available for the birds and pinnipeds",
                        "general_recommendation": "choose machine design allowing the reception of species on resting places",
                        "detailed_recommendation": "create artificial space and create dedicated areas"
                    }
                ],
                "seasons": []
            },
            "impact_electrical": {
                "__type__": "dtoesa:EIA:EIA_tech",
                "name": "none",
                "description": "Environmental impacts of the electrical technology group",
                "eis_dict": [
                    {
                        "__type__": "dtoesa:EIA:EIA_results",
                        "name": "none",
                        "description": "Results of the Footprint",
                        "function_name": "Footprint",
                        "score": -10.0
                    },
                    {
                        "__type__": "dtoesa:EIA:EIA_results",
                        "name": "none",
                        "description": "Results of the Collision Risk",
                        "function_name": "Collision Risk",
                        "score": -10.0
                    },
                    {
                        "__type__": "dtoesa:EIA:EIA_results",
                        "name": "none",
                        "description": "Results of the Underwater Noise",
                        "function_name": "Underwater Noise",
                        "score": -10.0
                    },
                    {
                        "__type__": "dtoesa:EIA:EIA_results",
                        "name": "none",
                        "description": "Results of the Electric Fields",
                        "function_name": "Electric Fields",
                        "score": -10.0
                    },
                    {
                        "__type__": "dtoesa:EIA:EIA_results",
                        "name": "none",
                        "description": "Results of the Magnetic Fields",
                        "function_name": "Magnetic Fields",
                        "score": -10.0
                    },
                    {
                        "__type__": "dtoesa:EIA:EIA_results",
                        "name": "none",
                        "description": "Results of the Temperature Modification",
                        "function_name": "Temperature Modification",
                        "score": -10.0
                    },
                    {
                        "__type__": "dtoesa:EIA:EIA_results",
                        "name": "none",
                        "description": "Results of the Reserve Effect",
                        "function_name": "Reserve Effect",
                        "score": 10.0
                    },
                    {
                        "__type__": "dtoesa:EIA:EIA_results",
                        "name": "none",
                        "description": "Results of the Reef Effect",
                        "function_name": "Reef Effect",
                        "score": 10.0
                    },
                    {
                        "__type__": "dtoesa:EIA:EIA_results",
                        "name": "none",
                        "description": "Results of the Resting Place",
                        "function_name": "Resting Place",
                        "score": 10.0
                    }
                ],
                "global_eis": {
                    "__type__": "dtoesa:EIA:EIA_global",
                    "name": "none",
                    "description": "Global environmental impact of the electrical technology group",
                    "negative_impact": 999.0,
                    "max_negative_impact": 999.0,
                    "min_negative_impact": 999.0,
                    "positive_impact": 10.0,
                    "max_positive_impact": 10.0,
                    "min_positive_impact": 10.0
                },
                "confidence_dict": [
                    {
                        "__type__": "dtoesa:EIA:EIA_confidence_dict",
                        "name": "none",
                        "description": "Level of confidence of the Footprint's results",
                        "function_name": "Footprint",
                        "confidence_level": 2.0
                    },
                    {
                        "__type__": "dtoesa:EIA:EIA_confidence_dict",
                        "name": "none",
                        "description": "Level of confidence of the Collision Risk's results",
                        "function_name": "Collision Risk",
                        "confidence_level": 2.0
                    },
                    {
                        "__type__": "dtoesa:EIA:EIA_confidence_dict",
                        "name": "none",
                        "description": "Level of confidence of the Underwater Noise's results",
                        "function_name": "Underwater Noise",
                        "confidence_level": 2.0
                    },
                    {
                        "__type__": "dtoesa:EIA:EIA_confidence_dict",
                        "name": "none",
                        "description": "Level of confidence of the Electric Fields's results",
                        "function_name": "Electric Fields",
                        "confidence_level": 2.0
                    },
                    {
                        "__type__": "dtoesa:EIA:EIA_confidence_dict",
                        "name": "none",
                        "description": "Level of confidence of the Magnetic Fields's results",
                        "function_name": "Magnetic Fields",
                        "confidence_level": 2.0
                    },
                    {
                        "__type__": "dtoesa:EIA:EIA_confidence_dict",
                        "name": "none",
                        "description": "Level of confidence of the Temperature Modification's results",
                        "function_name": "Temperature Modification",
                        "confidence_level": 2.0
                    },
                    {
                        "__type__": "dtoesa:EIA:EIA_confidence_dict",
                        "name": "none",
                        "description": "Level of confidence of the Reserve Effect's results",
                        "function_name": "Reserve Effect",
                        "confidence_level": 2.0
                    },
                    {
                        "__type__": "dtoesa:EIA:EIA_confidence_dict",
                        "name": "none",
                        "description": "Level of confidence of the Reef Effect's results",
                        "function_name": "Reef Effect",
                        "confidence_level": 2.0
                    },
                    {
                        "__type__": "dtoesa:EIA:EIA_confidence_dict",
                        "name": "none",
                        "description": "Level of confidence of the Resting Place's results",
                        "function_name": "Resting Place",
                        "confidence_level": 2.0
                    }
                ],
                "recommendation_dict": [
                    {
                        "__type__": "dtoesa:EIA:EIA_recommendation_dict",
                        "name": "none",
                        "description": "Recommendations to improve the results of Footprint",
                        "function_name": "Footprint",
                        "generic_explanation": "score results of a moderate surface covered by electrical components on the ground",
                        "general_recommendation": "decrease the surface of the seafloor  covered by the electrical components",
                        "detailed_recommendation": "nan"
                    },
                    {
                        "__type__": "dtoesa:EIA:EIA_recommendation_dict",
                        "name": "none",
                        "description": "Recommendations to improve the results of Collision Risk",
                        "function_name": "Collision Risk",
                        "generic_explanation": "score results of a low number of electric components in the water column. ",
                        "general_recommendation": "few pressures, not  increase the number of electrical components",
                        "detailed_recommendation": "nan"
                    },
                    {
                        "__type__": "dtoesa:EIA:EIA_recommendation_dict",
                        "name": "none",
                        "description": "Recommendations to improve the results of Underwater Noise",
                        "function_name": "Underwater Noise",
                        "generic_explanation": "score results of the very high level of noise produced by sub station",
                        "general_recommendation": "Use specific technical to reduce imperatively the noise of electrical components ",
                        "detailed_recommendation": "monitoring by passive acoustics methods of the noise produced by the electrical components.  "
                    },
                    {
                        "__type__": "dtoesa:EIA:EIA_recommendation_dict",
                        "name": "none",
                        "description": "Recommendations to improve the results of Electric Fields",
                        "function_name": "Electric Fields",
                        "generic_explanation": "No pressure",
                        "general_recommendation": "No pressure",
                        "detailed_recommendation": "No pressure"
                    },
                    {
                        "__type__": "dtoesa:EIA:EIA_recommendation_dict",
                        "name": "none",
                        "description": "Recommendations to improve the results of Magnetic Fields",
                        "function_name": "Magnetic Fields",
                        "generic_explanation": "No pressure",
                        "general_recommendation": "No pressure",
                        "detailed_recommendation": "No pressure"
                    },
                    {
                        "__type__": "dtoesa:EIA:EIA_recommendation_dict",
                        "name": "none",
                        "description": "Recommendations to improve the results of Temperature Modification",
                        "function_name": "Temperature Modification",
                        "generic_explanation": "No pressure",
                        "general_recommendation": "No pressure",
                        "detailed_recommendation": "No pressure"
                    },
                    {
                        "__type__": "dtoesa:EIA:EIA_recommendation_dict",
                        "name": "none",
                        "description": "Recommendations to improve the results of Reserve Effect",
                        "function_name": "Reserve Effect",
                        "generic_explanation": "nan",
                        "general_recommendation": "nan",
                        "detailed_recommendation": "nan"
                    },
                    {
                        "__type__": "dtoesa:EIA:EIA_recommendation_dict",
                        "name": "none",
                        "description": "Recommendations to improve the results of Reef Effect",
                        "function_name": "Reef Effect",
                        "generic_explanation": "score results of a  low surface of electrical components available for the benthic colonisation",
                        "general_recommendation": "nan",
                        "detailed_recommendation": "nan"
                    },
                    {
                        "__type__": "dtoesa:EIA:EIA_recommendation_dict",
                        "name": "none",
                        "description": "Recommendations to improve the results of Resting Place",
                        "function_name": "Resting Place",
                        "generic_explanation": "score results of  a  low surface of the electrical components available for the birds and pinnipeds",
                        "general_recommendation": "choose electrical components design allowing the reception of species on resting places",
                        "detailed_recommendation": "create artificial space and create dedicated areas"
                    }
                ],
                "seasons": []
            },
            "impact_station_keeping": {
                "__type__": "dtoesa:EIA:EIA_tech",
                "name": "none",
                "description": "Environmental impacts of the station keeping technology group",
                "eis_dict": [
                    {
                        "__type__": "dtoesa:EIA:EIA_results",
                        "name": "none",
                        "description": "Results of the Footprint",
                        "function_name": "Footprint",
                        "score": -10.0
                    },
                    {
                        "__type__": "dtoesa:EIA:EIA_results",
                        "name": "none",
                        "description": "Results of the Collision Risk",
                        "function_name": "Collision Risk",
                        "score": -10.0
                    },
                    {
                        "__type__": "dtoesa:EIA:EIA_results",
                        "name": "none",
                        "description": "Results of the Underwater Noise",
                        "function_name": "Underwater Noise",
                        "score": -10.0
                    },
                    {
                        "__type__": "dtoesa:EIA:EIA_results",
                        "name": "none",
                        "description": "Results of the Reef Effect",
                        "function_name": "Reef Effect",
                        "score": 10.0
                    }
                ],
                "global_eis": {
                    "__type__": "dtoesa:EIA:EIA_global",
                    "name": "none",
                    "description": "Global environmental impact of the station keeping technology group",
                    "negative_impact": -10.0,
                    "max_negative_impact": -10.0,
                    "min_negative_impact": -10.0,
                    "positive_impact": 10.0,
                    "max_positive_impact": 10.0,
                    "min_positive_impact": 10.0
                },
                "confidence_dict": [
                    {
                        "__type__": "dtoesa:EIA:EIA_confidence_dict",
                        "name": "none",
                        "description": "Level of confidence of the Footprint's results",
                        "function_name": "Footprint",
                        "confidence_level": 2.0
                    },
                    {
                        "__type__": "dtoesa:EIA:EIA_confidence_dict",
                        "name": "none",
                        "description": "Level of confidence of the Collision Risk's results",
                        "function_name": "Collision Risk",
                        "confidence_level": 2.0
                    },
                    {
                        "__type__": "dtoesa:EIA:EIA_confidence_dict",
                        "name": "none",
                        "description": "Level of confidence of the Underwater Noise's results",
                        "function_name": "Underwater Noise",
                        "confidence_level": 2.0
                    },
                    {
                        "__type__": "dtoesa:EIA:EIA_confidence_dict",
                        "name": "none",
                        "description": "Level of confidence of the Reef Effect's results",
                        "function_name": "Reef Effect",
                        "confidence_level": 2.0
                    }
                ],
                "recommendation_dict": [
                    {
                        "__type__": "dtoesa:EIA:EIA_recommendation_dict",
                        "name": "none",
                        "description": "Recommendations to improve the results of Footprint",
                        "function_name": "Footprint",
                        "generic_explanation": "score results of a very high surface covered by moorings and foundations on the ground",
                        "general_recommendation": "decrease imperatively the seafloor surface covered by mooring lines or foundations.",
                        "detailed_recommendation": "If floating technologies, favor taut lines gravitational anchor. Limit gravity type foundations, favor jacket systems."
                    },
                    {
                        "__type__": "dtoesa:EIA:EIA_recommendation_dict",
                        "name": "none",
                        "description": "Recommendations to improve the results of Collision Risk",
                        "function_name": "Collision Risk",
                        "generic_explanation": "score results of  a low number of anchor lines or  foundations in the water column",
                        "general_recommendation": "not  increase the number of anchor lines or the number of foundations",
                        "detailed_recommendation": "nan"
                    },
                    {
                        "__type__": "dtoesa:EIA:EIA_recommendation_dict",
                        "name": "none",
                        "description": "Recommendations to improve the results of Underwater Noise",
                        "function_name": "Underwater Noise",
                        "generic_explanation": "score results of the very high level of noise produced by the chafing",
                        "general_recommendation": "use specific technical to reduce imperatively the noise of the chafing",
                        "detailed_recommendation": "monitoring by passive acoustics methods of the noise produced by the chafing process.  "
                    },
                    {
                        "__type__": "dtoesa:EIA:EIA_recommendation_dict",
                        "name": "none",
                        "description": "Recommendations to improve the results of Reef Effect",
                        "function_name": "Reef Effect",
                        "generic_explanation": "score results of a low surface of moorings and foundations available for the benthic colonisation",
                        "general_recommendation": "Prefer grainy texture. The implantation depth and location should be studied before the installation, favor the vertical design.",
                        "detailed_recommendation": "nan"
                    }
                ],
                "seasons": []
            },
            "impact_installation": {
                "__type__": "dtoesa:EIA:EIA_tech",
                "name": "none",
                "description": "Environmental impacts of the the installation phase",
                "eis_dict": [
                    {
                        "__type__": "dtoesa:EIA:EIA_results",
                        "name": "none",
                        "description": "Results of the Footprint",
                        "function_name": "Footprint",
                        "score": -10.0
                    },
                    {
                        "__type__": "dtoesa:EIA:EIA_results",
                        "name": "none",
                        "description": "Results of the Collision Risk Vessel",
                        "function_name": "Collision Risk Vessel",
                        "score": -10.0
                    },
                    {
                        "__type__": "dtoesa:EIA:EIA_results",
                        "name": "none",
                        "description": "Results of the Chemical Pollution",
                        "function_name": "Chemical Pollution",
                        "score": -10.0
                    },
                    {
                        "__type__": "dtoesa:EIA:EIA_results",
                        "name": "none",
                        "description": "Results of the Turbidity",
                        "function_name": "Turbidity",
                        "score": -10.0
                    },
                    {
                        "__type__": "dtoesa:EIA:EIA_results",
                        "name": "none",
                        "description": "Results of the Underwater Noise",
                        "function_name": "Underwater Noise",
                        "score": -10.0
                    }
                ],
                "global_eis": {
                    "__type__": "dtoesa:EIA:EIA_global",
                    "name": "none",
                    "description": "Global environmental impact of the installation phase",
                    "negative_impact": -10.0,
                    "max_negative_impact": -10.0,
                    "min_negative_impact": -10.0,
                    "positive_impact": 999.0,
                    "max_positive_impact": 999.0,
                    "min_positive_impact": 999.0
                },
                "confidence_dict": [
                    {
                        "__type__": "dtoesa:EIA:EIA_confidence_dict",
                        "name": "none",
                        "description": "Level of confidence of the Footprint's results",
                        "function_name": "Footprint",
                        "confidence_level": 2.0
                    },
                    {
                        "__type__": "dtoesa:EIA:EIA_confidence_dict",
                        "name": "none",
                        "description": "Level of confidence of the Collision Risk Vessel's results",
                        "function_name": "Collision Risk Vessel",
                        "confidence_level": 2.0
                    },
                    {
                        "__type__": "dtoesa:EIA:EIA_confidence_dict",
                        "name": "none",
                        "description": "Level of confidence of the Chemical Pollution's results",
                        "function_name": "Chemical Pollution",
                        "confidence_level": 2.0
                    },
                    {
                        "__type__": "dtoesa:EIA:EIA_confidence_dict",
                        "name": "none",
                        "description": "Level of confidence of the Turbidity's results",
                        "function_name": "Turbidity",
                        "confidence_level": 2.0
                    },
                    {
                        "__type__": "dtoesa:EIA:EIA_confidence_dict",
                        "name": "none",
                        "description": "Level of confidence of the Underwater Noise's results",
                        "function_name": "Underwater Noise",
                        "confidence_level": 2.0
                    }
                ],
                "recommendation_dict": [
                    {
                        "__type__": "dtoesa:EIA:EIA_recommendation_dict",
                        "name": "none",
                        "description": "Recommendations to improve the results of Footprint",
                        "function_name": "Footprint",
                        "generic_explanation": "score results of a low surface of the seafloor impacted by vessels anchors and installation tools",
                        "general_recommendation": "Limit the number of vessels and tools in the area, try to limit the anchors footprint of vessels",
                        "detailed_recommendation": "nan"
                    },
                    {
                        "__type__": "dtoesa:EIA:EIA_recommendation_dict",
                        "name": "none",
                        "description": "Recommendations to improve the results of Collision Risk Vessel",
                        "function_name": "Collision Risk Vessel",
                        "generic_explanation": "score results of a very high number of vessels",
                        "general_recommendation": "Decrease imperatively the number of vessels in the area . Avoid presence at the site during the reproduction period. The speed limitation should be applied before reaching the site.  Reduce night vessel traffic. Reduce  the vessel light which attracts some species (especially birds).",
                        "detailed_recommendation": "nan"
                    },
                    {
                        "__type__": "dtoesa:EIA:EIA_recommendation_dict",
                        "name": "none",
                        "description": "Recommendations to improve the results of Chemical Pollution",
                        "function_name": "Chemical Pollution",
                        "generic_explanation": "score results of the very high level of toxicity pollutants",
                        "general_recommendation": "Limit imperatively the utilization of toxic antifouling paints. Prefer biological or natural process/ Prohibit discharge of wastewater, ballast water and any garbage, Limit the number of vessels in the area",
                        "detailed_recommendation": "nan"
                    },
                    {
                        "__type__": "dtoesa:EIA:EIA_recommendation_dict",
                        "name": "none",
                        "description": "Recommendations to improve the results of Turbidity",
                        "function_name": "Turbidity",
                        "generic_explanation": "No pressure",
                        "general_recommendation": "No pressure",
                        "detailed_recommendation": "No pressure"
                    },
                    {
                        "__type__": "dtoesa:EIA:EIA_recommendation_dict",
                        "name": "none",
                        "description": "Recommendations to improve the results of Underwater Noise",
                        "function_name": "Underwater Noise",
                        "generic_explanation": "No pressure",
                        "general_recommendation": "No pressure",
                        "detailed_recommendation": "No pressure"
                    }
                ],
                "seasons": []
            },
            "impact_maintenance": {
                "__type__": "dtoesa:EIA:EIA_tech",
                "name": "none",
                "description": "Environmental impacts of the operations and maintenance phase",
                "eis_dict": [
                    {
                        "__type__": "dtoesa:EIA:EIA_results",
                        "name": "none",
                        "description": "Results of the Footprint",
                        "function_name": "Footprint",
                        "score": -10.0
                    },
                    {
                        "__type__": "dtoesa:EIA:EIA_results",
                        "name": "none",
                        "description": "Results of the Collision Risk Vessel",
                        "function_name": "Collision Risk Vessel",
                        "score": -10.0
                    },
                    {
                        "__type__": "dtoesa:EIA:EIA_results",
                        "name": "none",
                        "description": "Results of the Chemical Pollution",
                        "function_name": "Chemical Pollution",
                        "score": -10.0
                    },
                    {
                        "__type__": "dtoesa:EIA:EIA_results",
                        "name": "none",
                        "description": "Results of the Turbidity",
                        "function_name": "Turbidity",
                        "score": -10.0
                    },
                    {
                        "__type__": "dtoesa:EIA:EIA_results",
                        "name": "none",
                        "description": "Results of the Underwater Noise",
                        "function_name": "Underwater Noise",
                        "score": -10.0
                    }
                ],
                "global_eis": {
                    "__type__": "dtoesa:EIA:EIA_global",
                    "name": "none",
                    "description": "Global environmental impact of the operations and maintenance phase",
                    "negative_impact": -10.0,
                    "max_negative_impact": -10.0,
                    "min_negative_impact": -10.0,
                    "positive_impact": 999.0,
                    "max_positive_impact": 999.0,
                    "min_positive_impact": 999.0
                },
                "confidence_dict": [
                    {
                        "__type__": "dtoesa:EIA:EIA_confidence_dict",
                        "name": "none",
                        "description": "Level of confidence of the Footprint's results",
                        "function_name": "Footprint",
                        "confidence_level": 2.0
                    },
                    {
                        "__type__": "dtoesa:EIA:EIA_confidence_dict",
                        "name": "none",
                        "description": "Level of confidence of the Collision Risk Vessel's results",
                        "function_name": "Collision Risk Vessel",
                        "confidence_level": 2.0
                    },
                    {
                        "__type__": "dtoesa:EIA:EIA_confidence_dict",
                        "name": "none",
                        "description": "Level of confidence of the Chemical Pollution's results",
                        "function_name": "Chemical Pollution",
                        "confidence_level": 2.0
                    },
                    {
                        "__type__": "dtoesa:EIA:EIA_confidence_dict",
                        "name": "none",
                        "description": "Level of confidence of the Turbidity's results",
                        "function_name": "Turbidity",
                        "confidence_level": 2.0
                    },
                    {
                        "__type__": "dtoesa:EIA:EIA_confidence_dict",
                        "name": "none",
                        "description": "Level of confidence of the Underwater Noise's results",
                        "function_name": "Underwater Noise",
                        "confidence_level": 2.0
                    }
                ],
                "recommendation_dict": [
                    {
                        "__type__": "dtoesa:EIA:EIA_recommendation_dict",
                        "name": "none",
                        "description": "Recommendations to improve the results of Footprint",
                        "function_name": "Footprint",
                        "generic_explanation": "score results of a low surface of the seafloor impacted by vessels anchors",
                        "general_recommendation": "Limit the number of vessels and tools in the area, try to limit the anchors footprint of vessels ",
                        "detailed_recommendation": "nan"
                    },
                    {
                        "__type__": "dtoesa:EIA:EIA_recommendation_dict",
                        "name": "none",
                        "description": "Recommendations to improve the results of Collision Risk Vessel",
                        "function_name": "Collision Risk Vessel",
                        "generic_explanation": "score results of a very high number of vessels",
                        "general_recommendation": "decrease imperatively the number of vessels in the area . Avoid presence at the site during the reproduction period. The speed limitation should be applied before reaching the site. Reduce night vessel traffic. Reduce the vessel light which attracts some species (especially birds).",
                        "detailed_recommendation": "nan"
                    },
                    {
                        "__type__": "dtoesa:EIA:EIA_recommendation_dict",
                        "name": "none",
                        "description": "Recommendations to improve the results of Chemical Pollution",
                        "function_name": "Chemical Pollution",
                        "generic_explanation": "score results of the very high level of toxicity pollutants",
                        "general_recommendation": "Limit imperatively  the utilization of antifouling paints. Prefer biological or natural process/ Prohibit discharge of wastewater, ballast water and any garbage, Limit the number of vessels in the area",
                        "detailed_recommendation": "nan"
                    },
                    {
                        "__type__": "dtoesa:EIA:EIA_recommendation_dict",
                        "name": "none",
                        "description": "Recommendations to improve the results of Turbidity",
                        "function_name": "Turbidity",
                        "generic_explanation": "No pressure",
                        "general_recommendation": "No pressure",
                        "detailed_recommendation": "No pressure"
                    },
                    {
                        "__type__": "dtoesa:EIA:EIA_recommendation_dict",
                        "name": "none",
                        "description": "Recommendations to improve the results of Underwater Noise",
                        "function_name": "Underwater Noise",
                        "generic_explanation": "No pressure",
                        "general_recommendation": "No pressure",
                        "detailed_recommendation": "No pressure"
                    }
                ],
                "seasons": []
            }
        }
