{
    "Species": 

        {
            "__name__": "Species",

            "__description__": "Results of ES for a species",
            "__type__": "dtoesa:ES:Species",
        
            "__properties__": [

                { "name":"Class",
                  "type": "string", 
                  "description": "Taxonomic Class of the species"
                },
                { "name":"Order",
                  "type": "string",
                  "description": "Taxonomic Order of the species"
                },
                { "name":"Family",
                  "type": "string",
                  "description": "Taxonomic Family of the species"
                },
                { "name":"Commun_name",
                  "type": "string",
                  "description" : "English commun name of the species"
                },
                { "name":"IUCN_status",
                  "type": "string",
                  "description": "International Union of Conservation of Nature status of the species"
                },
                { "name":"Probability_of_presence",
                  "type": "double",
                  "description" : "Probability of presence of the species at the closest coordinates"
                },
                { "name":"Risks_mitigation",
                  "type": "dtoesa:ES:Risks",
                  "dim": "*"
                },
                { "name":"Surveys",
                  "type": "string",
                  "description": "Recommendations on surveys for the species"
                }                

        ]
    }
}