{
    "femgen model": 

        {
            "__name__": "inputs_ESA_processed",

            "__description__": "",

            "__type__": "dtoesa:inputs:inputs_ESA_processed",
        
            "__properties__": [

                { "name":"inputs_EIA",
                  "type": "dtoesa:inputs:inputs_EIA"
                },
                { "name":"inputs_ES",
                  "type": "dtoesa:inputs:inputs_ES"
                },
                { "name":"inputs_SA",
                  "type": "dtoesa:inputs:inputs_SA"
                },
                { "name":"inputs_CFP",
                  "type": "dtoesa:inputs:inputs_CFP"
                }
        ]
    }
}