{
    "femgen model": 

        {
            "__name__": "inputs_CFP",

            "__description__": "Necessary inputs to run the carbon footprint assessment of a project",

            "__type__": "dtoesa:inputs:inputs_CFP",
        
            "__properties__": [

                { "name":"materials",
                  "type": "dtoesa:inputs:input_materials"
                },
                { "name":"materials_to_recycle",
                  "type": "dtoesa:inputs:input_materials"
                },
                { "name":"vessel_consumption",
                  "type": "dtoesa:inputs:vessel_consumption",
                  "unit": "L"
                },
                { "name":"energy_produced",
                  "type": "dtoesa:inputs:value",
                  "unit": "Wh"
                },
                { "name":"project_lifetime",
                  "type": "dtoesa:inputs:value",
                  "unit": "years"
                }

        ]
    }
}