{
    "femgen model": 

        {
            "__name__": "input_hydro",

            "__description__": "",

            "__type__": "dtoesa:inputs:input_hydro",
        
            "__properties__": [

                { "name":"Energy_Modification",
                  "type": "double"
                },
                { "name":"Coordinates_of_the_Devices_x",
                  "type": "double",
                  "units": "UTM",
                  "dim": "*"
                },
                { "name":"Coordinates_of_the_Devices_y",
                  "type": "double",
                  "units": "UTM",
                  "dim": "*"
                },
                { "name":"Size_of_the_Devices",
                  "type": "double"
                },
                { "name":"Immersed_Height_of_the_Devices",
                  "type": "double"
                },
                { "name":"Water_Depth",
                  "type": "double"
                },
                { "name":"Current_Direction",
                  "type": "double"
                },
                { "name":"Initial_Turbidity",
                  "type": "double", 
                  "value": 0
                },
                { "name":"Measured_Turbidity",
                  "type": "double"
                },
                { "name":"Initial_Noise_dB_re_1muPa",
                  "type": "double"
                },
                { "name":"Measured_Noise_dB_re_1muPa",
                  "type": "double"
                },
                { "name":"Fishery_Restriction_Surface",
                  "type": "double"
                },
                { "name":"Total_Surface_Area",
                  "type": "double"
                },
                { "name":"Number_of_Objects",
                  "type": "double"
                },
                { "name":"Object_Emerged_Surface",
                  "type": "double"
                },
                { "name":"Surface_Area_of_Underwater_Part",
                  "type": "double"
                }
        ]
    }
}