{
    "femgen model": 

        {
            "__name__": "URL",

            "__description__": "data model representing an url path",

            "__type__": "dtoesa:inputs:URL",
        
            "__properties__": [               
                { "name":"url",
                    "type": "string",
                    "required":"True",
                    "description":"URL path"
                }]
    }
}