{
    "femgen model": 

        {
            "__name__": "value",

            "__description__": "Necessary inputs to run the carbon footprint assessment of a project",

            "__type__": "dtoesa:inputs:value",
        
            "__properties__": [

                { "name":"value",
                  "type": "double"
                },
                { "name":"unit",
                  "type": "string"
                }
        ]
    }
}