{
    "femgen model": 
  
        {
            "__name__": "dr_assessment_maint",
  
            "__description__": "assessment",
  
            "__type__": "dtoesa:outputs:dr_assessment_maint",
        
            "__properties__": [
              {"name":"overall_negative_environmental_impact",
                "type":"dtoesa:outputs:dr_assessment"
              },
              {"name":"overall_positive_environmental_impact",
                "type":"dtoesa:outputs:dr_assessment"
              },
              {"name":"collision_risk",
                "type":"dtoesa:outputs:dr_assessment"
              },
              {"name":"footprint",
                "type":"dtoesa:outputs:dr_assessment"
              },
              {"name":"turbidity",
                "type":"dtoesa:outputs:dr_assessment"
              },
              {"name":"underwater_noise",
                "type":"dtoesa:outputs:dr_assessment"
              },
              {"name":"chemical_pollution",
                "type":"dtoesa:outputs:dr_assessment"
              },
              {"name":"global_warming_potential",
                "type":"dtoesa:outputs:dr_assessment"
              },
              {"name":"cumulative_energy_demand",
                "type":"dtoesa:outputs:dr_assessment"
              },
              {"name":"number_crew_member",
                "type":"dtoesa:outputs:dr_assessment"
              }

       ]       
    }}