{
    "femgen model": 
  
        {
            "__name__": "dr_assessment_phases",
  
            "__description__": "assessment",
  
            "__type__": "dtoesa:outputs:dr_assessment_phases",
        
            "__properties__": [
        
              {"name":"global_warming_potential",
                "type":"dtoesa:outputs:dr_assessment"
              },
              {"name":"cumulative_energy_demand",
                "type":"dtoesa:outputs:dr_assessment"
              }
       ]       
    }}