{
    "femgen model": 
  
        {
            "__name__": "dr_marine_life",
  
            "__description__": "Marine life digital representation",
  
            "__type__": "dtoesa:outputs:dr_marine_life",
        
            "__properties__": [
              {"name":"receptors",
                "type":"string",
                "description":"Receptors digital representation",
                "dim":"*"
              },
              {"name":"initial_environmental_conditions",
                "type":"dtoesa:outputs:dr_env_parameters"
              },
              {"name":"endangered_species",
                "type":"dtoesa:outputs:dr_ES",
                "dim":"*"
              }                  
        ]
    }}