{
    "femgen model": 
  
        {
            "__name__": "dr_prod",
  
            "__description__": "assessment",
  
            "__type__": "dtoesa:outputs:dr_prod",
        
            "__properties__": [
              {"name":"id",
                "type":"string"
              } ,
              {"name":"assessment",
                "type":"dtoesa:outputs:dr_assessment_prod"
              }                  
        ]
    }}